Data Axle - Businesses in Sharswood – Jed Chew - MUSA 5080 Portfolio
…
# A tibble: 6 × 2
  `Field Name`         `Field Description`                  
  <chr>                <chr>                                
1 Company Name         Name of Company or Professional Name 
2 Executive First Name First Name of Contact                
3 Executive Last Name  Last Name of Contact                 
4 Address              Location address of the company      
5 City                 Location city address of the company 
6 State                Location state address of the company

verified <- read_csv("data/Sharswood_Verified_Biz.csv")
verified

# A tibble: 35 × 18
   `Company Name`           `Legal Name` Address Latitude Longitude Neighborhood
   <chr>                    <chr>        <chr>   <chr>        <dbl> <chr>       
 1 ATM                      <NA>         2101 S… 039.972…     -75.2 Sharswood   
 2 ATM                      <NA>         2438 W… 039.975…     -75.2 Sharswood   
 3 Big Picture Philadelphia <NA>         2300 W… 039.976…     -75.2 Sharswood   
 4 Brothers Corner          BROTHER GRO… 2012 R… 039.975…     -75.2 Sharswood   
 5 Citizens For Kenneth Wa… <NA>         2101 S… 039.972…     -75.2 Sharswood   
 6 College Girard           <NA>         2101 N… 039.975…     -75.2 Sharswood   
 7 El Tlaloc                <NA>         2108 R… 039.978…     -75.2 Sharswood   
 8 Georgiegs Truck          <NA>         1261 N… 039.974…     -75.2 Sharswood   
 9 Girard College Devmnt F… <NA>         2101 S… 039.973…     -75.2 Sharswood   
10 Girard College Foundati… GIRARD COLL… 2101 S… 039.973…     -75.2 Sharswood   
# ℹ 25 more rows
# ℹ 12 more variables: `Census Block Group` <dbl>, `ZIP Code` <dbl>,
#   `Company Description` <chr>, `Primary SIC Code` <chr>,
#   `Primary SIC Description` <chr>, `Primary NAICS` <dbl>,
#   `Primary NAICS Description` <chr>, `Years In Database` <dbl>,
#   `Location Type` <chr>, `Location Employee Size Range` <chr>,
#   `Square Footage` <chr>, `Record Type` <chr>

unverified1 <- read_csv("data/Sharswood_Unverified_Biz_Pg1to10.csv")
unverified1

# A tibble: 250 × 18
   `Company Name`     Address `ZIP Code` `Legal Name` `Record Type` Neighborhood
   <chr>              <chr>        <dbl> <chr>        <chr>         <chr>       
 1 100 Black Men Of … 2300 W…      19121 <NA>         Unverified    Sharswood   
 2 1220 Lindley Aven… 2101 N…      19121 1220 LINDLE… Unverified    Sharswood   
 3 1496 Bushwick LLC  2101 N…      19121 1496 BUSHWI… Unverified    Sharswood   
 4 1518 Loudon LLC    2026 R…      19121 1518 LOUDON… Unverified    Sharswood   
 5 1530 Ridge LLC     2026 R…      19121 1530 RIDGE … Unverified    Sharswood   
 6 16th Associates L… 2101 N…      19121 16TH ASSOCI… Unverified    Sharswood   
 7 1985 LLC           2026 R…      19121 1985 LLC     Unverified    Sharswood   
 8 2048 St Inc        2048 R…      19121 2048 ST INC  Unverified    Sharswood   
 9 2111 Seybert LLC   2111 W…      19121 2111 SEYBER… Unverified    Sharswood   
10 2245 W Thompson S… 2245 W…      19121 2245 W THOM… Unverified    Sharswood   
# ℹ 240 more rows
# ℹ 12 more variables: `Census Block Group` <dbl>, `Company Description` <lgl>,
#   `Primary SIC Code` <chr>, `Primary SIC Description` <chr>,
#   `Primary NAICS` <dbl>, `Primary NAICS Description` <chr>,
#   `Location Employee Size Range` <chr>, `Location Type` <chr>,
#   `Years In Database` <dbl>, `Square Footage` <chr>, Latitude <chr>,
#   Longitude <dbl>

unverified2 <- read_csv("data/Sharswood_Unverified_Biz_Pg11to17.csv")
unverified2

# A tibble: 171 × 18
   `Company Name`     Address `ZIP Code` `Legal Name` `Record Type` Neighborhood
   <chr>              <chr>        <dbl> <chr>        <chr>         <chr>       
 1 Miller Rothlein    2101 S…      19121 <NA>         Unverified    Sharswood   
 2 Milley Meals LLC   2405 W…      19121 MILLEY MEAL… Unverified    Sharswood   
 3 Miracle Revival D… 2072 R…      19121 <NA>         Unverified    Sharswood   
 4 Miro Dance Theatre 2101 S…      19121 <NA>         Unverified    Sharswood   
 5 Modern Konvention… 2111 W…      19121 MODERN KONV… Unverified    Sharswood   
 6 Molly's World LLC  2105 W…      19121 MOLLY'S WOR… Unverified    Sharswood   
 7 Moore Treats 4 U … 2300 W…      19121 MOORE TREAT… Unverified    Sharswood   
 8 Motef Co           2216 W…      19121 MOTEF CO     Unverified    Sharswood   
 9 MPL Corp           2101 S…      19121 MPL CORP     Unverified    Sharswood   
10 Mt Calvary Aposto… 2450 W…      19121 <NA>         Unverified    Sharswood   
# ℹ 161 more rows
# ℹ 12 more variables: `Census Block Group` <dbl>, `Company Description` <chr>,
#   `Primary SIC Code` <chr>, `Primary SIC Description` <chr>,
#   `Primary NAICS` <dbl>, `Primary NAICS Description` <chr>,
#   `Location Employee Size Range` <chr>, `Location Type` <chr>,
#   `Years In Database` <dbl>, `Square Footage` <chr>, Latitude <chr>,
#   Longitude <dbl>
…
unverified_clean <- unverified_combined |>
  filter(!primary_sic_description %in% drop_SIC) |>
  select(company_name, address, latitude, longitude, census_block_group, primary_sic_code, primary_sic_description, primary_naics, primary_naics_description, 
         years_in_database, location_type, location_employee_size_range, square_footage, record_type)
unverified_clean

# A tibble: 170 × 14
   company_name   address latitude longitude census_block_group primary_sic_code
   <chr>          <chr>   <chr>        <dbl>              <dbl> <chr>           
 1 1518 Loudon L… 2026 R… 039.976…     -75.2                  2 653118          
 2 2048 St Inc    2048 R… 039.976…     -75.2                  2 653118          
 3 4545 Uber LLC  2026 R… 039.976…     -75.2                  2 653118          
 4 4th Quarter C… 2438 W… 039.975…     -75.2                  2 152144          
 5 Adam Analysis… 2111 W… 039.976…     -75.2                  2 865101          
 6 Agricultural … 2130 W… 039.975…     -75.2                  2 013901          
 7 Ah Cornerston… 2331 N… 039.974…     -75.2                  2 621111          
 8 All Team Staf… 2203 W… 039.977…     -75.2                  1 736103          
 9 American Acad… 2019 W… 039.977…     -75.2                  2 801101          
10 Armstrong & M… 2317 W… 039.975…     -75.2                  2 873204          
# ℹ 160 more rows
# ℹ 8 more variables: primary_sic_description <chr>, primary_naics <dbl>,
#   primary_naics_description <chr>, years_in_database <dbl>,
#   location_type <chr>, location_employee_size_range <chr>,
#   square_footage <chr>, record_type <chr>
…
