Assignment 1: Census Data Quality for Policy Decisions – Jed Chew - MUSA 5080 Portfolio
…
# Calculate MOE percentage and reliability categories using mutate()
ny_reliability <- ny_clean |> 
  mutate(
    moe_percent = round((median_incomeM / median_incomeE) * 100, 2),
    
    # Create reliability categories
    reliability = case_when(
      moe_percent < 5 ~ "High",
      moe_percent >= 5 & moe_percent <= 10 ~ "Moderate",
      moe_percent > 10 ~ "Low"
    )
  )
ny_reliability

# A tibble: 62 × 9
   GEOID NAME    total_popE total_popM median_incomeE median_incomeM county_name
   <chr> <chr>        <dbl>      <dbl>          <dbl>          <dbl> <chr>      
 1 36001 Albany…     315041         NA          78829           2049 Albany     
 2 36003 Allega…      47222         NA          58725           1965 Allegany   
 3 36005 Bronx …    1443229         NA          47036            890 Bronx      
 4 36007 Broome…     198365         NA          58317           1761 Broome     
 5 36009 Cattar…      77000         NA          56889           1778 Cattaraugus
 6 36011 Cayuga…      76171         NA          63227           2736 Cayuga     
 7 36013 Chauta…     127440         NA          54625           1754 Chautauqua 
 8 36015 Chemun…      83584         NA          61358           2475 Chemung    
 9 36017 Chenan…      47096         NA          61741           2526 Chenango   
10 36019 Clinto…      79839         NA          67097           2802 Clinton    
# ℹ 52 more rows
# ℹ 2 more variables: moe_percent <dbl>, reliability <chr>
…
# Use get_acs() to retrieve tract-level data
# Hint: You may need to specify county codes in the county parameter
tract_data <- get_acs(
  geography = "tract",
  variables = race_vars,
  state = "NY",
  # GEOIDs for Queens, Seneca, and Hamilton Counties
  county = c("081", "099", "041"),
  year = 2022,
  survey = "acs5",
  output = "wide"
)
tract_data

# A tibble: 740 × 10
   GEOID       NAME  total_popE total_popM WhiteE WhiteM BlackE BlackM HispanicE
   <chr>       <chr>      <dbl>      <dbl>  <dbl>  <dbl>  <dbl>  <dbl>     <dbl>
 1 36041950100 Cens…        922        156    817    145     23     18        43
 2 36041950300 Cens…       1063        229   1008    224      2      4         3
 3 36041950400 Cens…       1880        240   1740    225      6      8        48
 4 36041950500 Cens…       1225        144   1121    136     24     13         8
 5 36081000101 Cens…       5027        860   2086    492      0     19       592
 6 36081000102 Cens…       5966       1015   3144    760     39     47       459
 7 36081000103 Cens…          0         13      0     13      0     13         0
 8 36081000104 Cens…        371        110     65     67    169     58       125
 9 36081000200 Cens…       2553        551    273    104    203    172      1202
10 36081000400 Cens…       4738       1144    131     93    216    195      3327
# ℹ 730 more rows
# ℹ 1 more variable: HispanicM <dbl>
# Add readable tract and county name columns using str_extract() or similar
tract_clean <- tract_data |> 
  filter(total_popE > 0) |> # remove tracts with zero estimated population
  separate(
    NAME, 
    into = c("tract_name", "county_name", "state_name"), 
    sep = "; "
  ) |> 
  mutate(
    tract_name = str_remove(tract_name, "Census Tract "),
    county_name = str_remove(county_name, " County")
  )
tract_clean

# A tibble: 704 × 12
   GEOID   tract_name county_name state_name total_popE total_popM WhiteE WhiteM
   <chr>   <chr>      <chr>       <chr>           <dbl>      <dbl>  <dbl>  <dbl>
 1 360419… 9501       Hamilton    New York          922        156    817    145
 2 360419… 9503       Hamilton    New York         1063        229   1008    224
 3 360419… 9504       Hamilton    New York         1880        240   1740    225
 4 360419… 9505       Hamilton    New York         1225        144   1121    136
 5 360810… 1.01       Queens      New York         5027        860   2086    492
 6 360810… 1.02       Queens      New York         5966       1015   3144    760
 7 360810… 1.04       Queens      New York          371        110     65     67
 8 360810… 2          Queens      New York         2553        551    273    104
 9 360810… 4          Queens      New York         4738       1144    131     93
10 360810… 6          Queens      New York         3890        777    346    179
# ℹ 694 more rows
# ℹ 4 more variables: BlackE <dbl>, BlackM <dbl>, HispanicE <dbl>,
#   HispanicM <dbl>

# Calculate percentage of each group using mutate()
# Create percentages for white, Black, and Hispanic populations
tract_clean <- tract_clean |> 
  mutate(
    percent_white = round((WhiteE/total_popE) * 100, 2),
    percent_black = round((BlackE/total_popE) * 100, 2),
    percent_hispanic = round((HispanicE/total_popE) * 100, 2),
  )
tract_clean

# A tibble: 704 × 15
   GEOID   tract_name county_name state_name total_popE total_popM WhiteE WhiteM
   <chr>   <chr>      <chr>       <chr>           <dbl>      <dbl>  <dbl>  <dbl>
 1 360419… 9501       Hamilton    New York          922        156    817    145
 2 360419… 9503       Hamilton    New York         1063        229   1008    224
 3 360419… 9504       Hamilton    New York         1880        240   1740    225
 4 360419… 9505       Hamilton    New York         1225        144   1121    136
 5 360810… 1.01       Queens      New York         5027        860   2086    492
 6 360810… 1.02       Queens      New York         5966       1015   3144    760
 7 360810… 1.04       Queens      New York          371        110     65     67
 8 360810… 2          Queens      New York         2553        551    273    104
 9 360810… 4          Queens      New York         4738       1144    131     93
10 360810… 6          Queens      New York         3890        777    346    179
# ℹ 694 more rows
# ℹ 7 more variables: BlackE <dbl>, BlackM <dbl>, HispanicE <dbl>,
#   HispanicM <dbl>, percent_white <dbl>, percent_black <dbl>,
#   percent_hispanic <dbl>
…
# Create a flag for tracts with high MOE on any demographic variable
# Use logical operators (| for OR) in an ifelse() statement
tract_reliability <- tract_reliability |> 
  mutate(reliability = if_else(
      moe_percent_white > 15 | moe_percent_black > 15 | moe_percent_hispanic > 15,
      "Low",
      "High"
    )
  )
tract_reliability

# A tibble: 704 × 19
   GEOID   tract_name county_name state_name total_popE total_popM WhiteE WhiteM
   <chr>   <chr>      <chr>       <chr>           <dbl>      <dbl>  <dbl>  <dbl>
 1 360419… 9501       Hamilton    New York          922        156    817    145
 2 360419… 9503       Hamilton    New York         1063        229   1008    224
 3 360419… 9504       Hamilton    New York         1880        240   1740    225
 4 360419… 9505       Hamilton    New York         1225        144   1121    136
 5 360810… 1.01       Queens      New York         5027        860   2086    492
 6 360810… 1.02       Queens      New York         5966       1015   3144    760
 7 360810… 1.04       Queens      New York          371        110     65     67
 8 360810… 2          Queens      New York         2553        551    273    104
 9 360810… 4          Queens      New York         4738       1144    131     93
10 360810… 6          Queens      New York         3890        777    346    179
# ℹ 694 more rows
# ℹ 11 more variables: BlackE <dbl>, BlackM <dbl>, HispanicE <dbl>,
#   HispanicM <dbl>, percent_white <dbl>, percent_black <dbl>,
#   percent_hispanic <dbl>, moe_percent_white <dbl>, moe_percent_black <dbl>,
#   moe_percent_hispanic <dbl>, reliability <chr>
…
